calcofi4r • calcofi4r
…
Plot time series of an oceanographic variable from CTD cast bottle
data.

# get variables
(v <- get_variables())
#> # A tibble: 3 × 6
#>   category      table_field       plot_title plot_label plot_color color_palette
#>   <chr>         <chr>             <chr>      <chr>      <chr>      <chr>        
#> 1 Oceanographic ctd_bottles.t_de… Temperatu… Temperatu… red        Reds         
#> 2 Oceanographic ctd_bottles.sali… Salinity   Salinity … purple     Purples      
#> 3 Oceanographic ctd_bottles.o2sat Oxygen Sa… Oxygen pe… blue       Blues

# fetch time series data for the first variable from CalCOFI API
(d <- get_timeseries(v$table_field[1]))
#> # A tibble: 71 × 4
#>     year val_avg val_sd n_obs
#>    <dbl>   <dbl>  <dbl> <dbl>
#>  1  1949    9.12   4.68 28081
#>  2  1950    9.12   4.37 38298
#>  3  1951    9.19   4.54 40459
#>  4  1952   10.4    4.03 31690
#>  5  1953   10.6    3.71 29789
#>  6  1954   10.8    4.33 18874
#>  7  1955   10.1    4.71 23248
#>  8  1956   11.2    4.41 14274
#>  9  1957   13.0    5.04 19072
#> 10  1958   12.1    4.71 24324
#> # ℹ 61 more rows
…
