…
``` r

# show row counts for each table
tables <- dbListTables(con)
tibble(
  table = tables,
  rows  = sapply(tables, function(t) {
    dbGetQuery(con, sprintf("SELECT COUNT(*) as n FROM %s", t))$n
  })) |>
  arrange(desc(rows))
#> # A tibble: 28 × 2
#>    table                   rows
#>    <chr>                  <dbl>
#>  1 ctd_summary        108390249
#>  2 bottle_measurement  11135600
#>  3 ctd_thin             5551551
#>  4 ctd_cast             5550014
#>  5 bottle                895371
#>  6 ichthyo               852228
#>  7 cast_condition        235513
#>  8 net                    76512
#>  9 tow                    75506
#> 10 site                   61104
#> # ℹ 18 more rows
```
…
